<svg width="24" height="24" xmlns="http://www.w3.org/2000/svg" version="1.1" stroke-miterlimit="1.414"
    stroke-linejoin="round" fill-rule="evenodd" clip-rule="evenodd">
    <g>
        <path stroke="null" stroke-width="5" id="svg_2" fill="#43a047"
            d="m21.01319,4.89066l-1.45691,-1.76084a1.58161,1.58195 0 0 0 -1.21736,-0.56615l-12.57722,0c-0.4922,0 -0.92205,0.2199 -1.20588,0.576l-1.45691,1.75087a2.08035,2.08089 0 0 0 -0.48235,1.34237l0,13.10515c0,1.15365 0.93354,2.09716 2.09679,2.09716l14.67401,0c1.15338,0 2.09679,-0.94358 2.09679,-2.09716l0,-13.10515c0,-0.51364 -0.17883,-0.97476 -0.47088,-1.34237l-0.00007,0.00012zm-8.96281,4.48647l5.76533,5.76649l-3.66838,0l0,2.09716l-4.19357,0l0,-2.09716l-3.66838,0l5.765,-5.76649zm-7.20907,-4.71799l0.85806,-1.04697l12.57889,0l0.97455,1.04697l-14.4115,0z" />
    </g>
</svg>