<svg xmlns="http://www.w3.org/2000/svg" width="24" height="24">
  <path d="M16,12V26a2,2,0,0,0,2,2H30a2,2,0,0,0,2-2V12a2,2,0,0,0-2-2H18A2,2,0,0,0,16,12ZM30,26H18V22H30Zm0-6H18V16H30Z" style="fill: #3584e4;fill-rule: evenodd" transform="translate(-12,-6.5)"/>
</svg>
